Data Preparation and EDA – A Quarto Website
…
var_summary

# A tibble: 42 × 4
   variable            unique_vals missing_vals pct_missing
   <chr>                     <int>        <int>       <dbl>
 1 AV.Cat                       17         2494       23.4 
 2 Ski.Pen                      29         2404       22.5 
 3 Summit.Wind.Dir_cos         322         1318       12.4 
 4 Summit.Wind.Dir_sin         323         1318       12.4 
 5 Crystals                     10          988        9.26
 6 Summit.Wind.Speed           144          909        8.52
 7 Summit.Air.Temp             222          754        7.07
 8 Snow.Index                   57          745        6.98
 9 Max.Temp.Grad               110          710        6.65
10 Max.Hardness.Grad             7          629        5.89
# ℹ 32 more rows
…
# A tibble: 0 × 2
# ℹ 2 variables: OSgrid <chr>, n_coords <int>

# yes, thus long and lat is the coordinates of different sites, OSgrid

# is Alt the same within each OSgrid?
aval %>%
  group_by(OSgrid) %>%
  summarise(n_alt = n_distinct(Alt), .groups = "drop") %>%
  filter(n_alt > 1)

# A tibble: 1,271 × 2
   OSgrid   n_alt
   <chr>    <int>
 1 NG773424     3
 2 NG773426     2
 3 NG774425     5
 4 NG774426     2
 5 NG777424     2
 6 NG777425     4
 7 NG778413     2
 8 NG778415     2
 9 NG779424     2
10 NG780424     2
# ℹ 1,261 more rows

## no: cannot use Osgrid to impute missing Alt

# Per-variable % missing
miss_summary <- aval %>%
  summarise(across(
    everything(),
    ~mean(is.na(.)) * 100
  )) %>%
  pivot_longer(everything(), names_to = "variable", values_to = "pct_missing") %>%
  arrange(desc(pct_missing))

miss_summary

# A tibble: 42 × 2
   variable            pct_missing
   <chr>                     <dbl>
 1 AV.Cat                    23.4 
 2 Ski.Pen                   22.5 
 3 Summit.Wind.Dir_sin       12.4 
 4 Summit.Wind.Dir_cos       12.4 
 5 Crystals                   9.26
 6 Summit.Wind.Speed          8.52
 7 Summit.Air.Temp            7.07
 8 Snow.Index                 6.98
 9 Max.Temp.Grad              6.65
10 Max.Hardness.Grad          5.89
# ℹ 32 more rows
…
